%YAML 1.1
%TAG !u! tag:unity3d.com,2011:
--- !u!114 &11400000
MonoBehaviour:
  m_ObjectHideFlags: 0
  m_CorrespondingSourceObject: {fileID: 0}
  m_PrefabInstance: {fileID: 0}
  m_PrefabAsset: {fileID: 0}
  m_GameObject: {fileID: 0}
  m_Enabled: 1
  m_EditorHideFlags: 0
  m_Script: {fileID: 11500000, guid: 045e1c8de87351943b9c106023c80622, type: 3}
  m_Name: fire_Tree
  m_EditorClassIdentifier: 
  expresion: {fileID: 0}
  text: "You give the ancient tree the Fire Crystal, and the tree flutters its\u2019
    leaves thankfully."
  actions:
  - m_PersistentCalls:
      m_Calls:
      - m_Target: {fileID: 11400000, guid: e95ffe307257f184d87c7275e5db5c67, type: 2}
        m_TargetAssemblyTypeName: SpecialActions, Assembly-CSharp
        m_MethodName: GiveCrystal
        m_Mode: 1
        m_Arguments:
          m_ObjectArgument: {fileID: 0}
          m_ObjectArgumentAssemblyTypeName: UnityEngine.Object, UnityEngine
          m_IntArgument: 0
          m_FloatArgument: 0
          m_StringArgument: 
          m_BoolArgument: 0
        m_CallState: 2
      - m_Target: {fileID: 11400000, guid: e95ffe307257f184d87c7275e5db5c67, type: 2}
        m_TargetAssemblyTypeName: SpecialActions, Assembly-CSharp
        m_MethodName: PlaySFX
        m_Mode: 2
        m_Arguments:
          m_ObjectArgument: {fileID: 8300000, guid: 9d875e2570bc7824ba9ba3c26035f638, type: 3}
          m_ObjectArgumentAssemblyTypeName: UnityEngine.AudioClip, UnityEngine
          m_IntArgument: 0
          m_FloatArgument: 0
          m_StringArgument: 
          m_BoolArgument: 0
        m_CallState: 2
  nextOption: []
  branchText: []
