%YAML 1.1
%TAG !u! tag:unity3d.com,2011:
--- !u!114 &11400000
MonoBehaviour:
  m_ObjectHideFlags: 0
  m_CorrespondingSourceObject: {fileID: 0}
  m_PrefabInstance: {fileID: 0}
  m_PrefabAsset: {fileID: 0}
  m_GameObject: {fileID: 0}
  m_Enabled: 1
  m_EditorHideFlags: 0
  m_Script: {fileID: 11500000, guid: 045e1c8de87351943b9c106023c80622, type: 3}
  m_Name: 3-2 SF
  m_EditorClassIdentifier: 
  expresion: {fileID: 21300000, guid: 5fd4f5c79efa764459f01c40990365c5, type: 3}
  text: Wait a sec, I have some seeds that I kept, as a souvenir from them. They
    are special seeds, you see. Crystal seeds, in fact. Hold on while I find them!
  actions: []
  nextOption:
  - {fileID: 11400000, guid: 5ef30194c80ac0c409d832bd273d1d06, type: 2}
  branchText: []
