%YAML 1.1
%TAG !u! tag:unity3d.com,2011:
--- !u!114 &11400000
MonoBehaviour:
  m_ObjectHideFlags: 0
  m_CorrespondingSourceObject: {fileID: 0}
  m_PrefabInstance: {fileID: 0}
  m_PrefabAsset: {fileID: 0}
  m_GameObject: {fileID: 0}
  m_Enabled: 1
  m_EditorHideFlags: 0
  m_Script: {fileID: 11500000, guid: 045e1c8de87351943b9c106023c80622, type: 3}
  m_Name: 3-4 SF
  m_EditorClassIdentifier: 
  expresion: {fileID: 21300000, guid: 4481555e2b6e4e4479e1d432ba13c178, type: 3}
  text: "Found them! I hope they\u2019re still able to grow... You see, crystals
    have magical cores, and they help heal any magical damage. They also help stabling
    the magic."
  actions: []
  nextOption:
  - {fileID: 11400000, guid: b5b68c2ee2c11604db8e54a84dd645c5, type: 2}
  branchText: []
