%YAML 1.1
%TAG !u! tag:unity3d.com,2011:
--- !u!114 &11400000
MonoBehaviour:
  m_ObjectHideFlags: 0
  m_CorrespondingSourceObject: {fileID: 0}
  m_PrefabInstance: {fileID: 0}
  m_PrefabAsset: {fileID: 0}
  m_GameObject: {fileID: 0}
  m_Enabled: 1
  m_EditorHideFlags: 0
  m_Script: {fileID: 11500000, guid: 045e1c8de87351943b9c106023c80622, type: 3}
  m_Name: 3-6 SF
  m_EditorClassIdentifier: 
  expresion: {fileID: 21300000, guid: 05eee12bf1436dc4796cafd710f42196, type: 3}
  text: "Oh... But I am not a magical flower... Even if I wanted to, I couldn\u2019t
    grow them..."
  actions: []
  nextOption:
  - {fileID: 11400000, guid: bee855f1f85707c40902fd5214e9dac0, type: 2}
  branchText: []
