%YAML 1.1
%TAG !u! tag:unity3d.com,2011:
--- !u!114 &11400000
MonoBehaviour:
  m_ObjectHideFlags: 0
  m_CorrespondingSourceObject: {fileID: 0}
  m_PrefabInstance: {fileID: 0}
  m_PrefabAsset: {fileID: 0}
  m_GameObject: {fileID: 0}
  m_Enabled: 1
  m_EditorHideFlags: 0
  m_Script: {fileID: 11500000, guid: 045e1c8de87351943b9c106023c80622, type: 3}
  m_Name: 5-1 SF
  m_EditorClassIdentifier: 
  expresion: {fileID: 21300000, guid: 9f8fbe3611fe7a348b050b78d91126d6, type: 3}
  text: "They aren\u2019t growing? Oh no..."
  actions: []
  nextOption:
  - {fileID: 11400000, guid: 905346335209442488d4833893818837, type: 2}
  branchText: []
