%YAML 1.1
%TAG !u! tag:unity3d.com,2011:
--- !u!114 &11400000
MonoBehaviour:
  m_ObjectHideFlags: 0
  m_CorrespondingSourceObject: {fileID: 0}
  m_PrefabInstance: {fileID: 0}
  m_PrefabAsset: {fileID: 0}
  m_GameObject: {fileID: 0}
  m_Enabled: 1
  m_EditorHideFlags: 0
  m_Script: {fileID: 11500000, guid: 045e1c8de87351943b9c106023c80622, type: 3}
  m_Name: Bed_default
  m_EditorClassIdentifier: 
  expresion: {fileID: 0}
  text: "The bed is still made. You wonder how long it\u2019s been waiting for someone
    to sleep in it."
  actions: []
  nextOption: []
  nextOptionText: []
