%YAML 1.1
%TAG !u! tag:unity3d.com,2011:
--- !u!114 &11400000
MonoBehaviour:
  m_ObjectHideFlags: 0
  m_CorrespondingSourceObject: {fileID: 0}
  m_PrefabInstance: {fileID: 0}
  m_PrefabAsset: {fileID: 0}
  m_GameObject: {fileID: 0}
  m_Enabled: 1
  m_EditorHideFlags: 0
  m_Script: {fileID: 11500000, guid: 05bfc42c9947a2040804d1f7f2d2e164, type: 3}
  m_Name: water_plant_check
  m_EditorClassIdentifier: 
  itemDialogs:
  - requiredItemName: s_water
    itemSeleced: {fileID: 11400000, guid: 8355194b673012a40ac143df00469dd9, type: 2}
  noItem: {fileID: 11400000, guid: 3f7fa75c39f7b77458b7ffd4b59c63db, type: 2}
  itemNotSelected: {fileID: 11400000, guid: 0d8ee6419a6a41c4981d83046261bb89, type: 2}
