%YAML 1.1
%TAG !u! tag:unity3d.com,2011:
--- !u!114 &11400000
MonoBehaviour:
  m_ObjectHideFlags: 0
  m_CorrespondingSourceObject: {fileID: 0}
  m_PrefabInstance: {fileID: 0}
  m_PrefabAsset: {fileID: 0}
  m_GameObject: {fileID: 0}
  m_Enabled: 1
  m_EditorHideFlags: 0
  m_Script: {fileID: 11500000, guid: 045e1c8de87351943b9c106023c80622, type: 3}
  m_Name: 1-3-1 SF
  m_EditorClassIdentifier: 
  expresion: {fileID: 21300000, guid: 4481555e2b6e4e4479e1d432ba13c178, type: 3}
  text: 'How about you stay there?

    It''s close to my house as well,

    so
    if you''ll need anything

    I''ll be right here.

    You can make it your
    own!'
  actions: []
  nextOption:
  - {fileID: 11400000, guid: c73731ace3f5f3b48bfdacc99017e58a, type: 2}
  branchText: []
