%YAML 1.1
%TAG !u! tag:unity3d.com,2011:
--- !u!114 &11400000
MonoBehaviour:
  m_ObjectHideFlags: 0
  m_CorrespondingSourceObject: {fileID: 0}
  m_PrefabInstance: {fileID: 0}
  m_PrefabAsset: {fileID: 0}
  m_GameObject: {fileID: 0}
  m_Enabled: 1
  m_EditorHideFlags: 0
  m_Script: {fileID: 11500000, guid: 05bfc42c9947a2040804d1f7f2d2e164, type: 3}
  m_Name: River
  m_EditorClassIdentifier: 
  itemDialogs:
  - requiredItemName: emptyCan
    itemSeleced: {fileID: 11400000, guid: 39b55a8b442847e44b9907ed85121686, type: 2}
  - requiredItemName: watercan
    itemSeleced: {fileID: 11400000, guid: 34bdbcf2d5a9f034f98bc7b7945a9ef8, type: 2}
  noItem: {fileID: 11400000, guid: 0f5e0252c2f8087418d2860f47df4819, type: 2}
  itemNotSelected: {fileID: 11400000, guid: 0f5e0252c2f8087418d2860f47df4819, type: 2}
